Individual 3
…
## # A tibble: 6 x 10
##   Name     Position      Ft    In Weight Class   City   State Highschool  Height
##   <fct>    <chr>      <dbl> <dbl>  <dbl> <chr>   <chr>  <chr> <chr>        <dbl>
## 1 Akers,  Wide Rece     6     0    191 Redshi Cedar Iowa  Washington      72
## 2 Allen,  Tight End      6     7    240 Redshi Nixa   Mo.   Nixa            79
## 3 Anderso Wide Rece     6     5    208 Redshi Seffn Fla.  Armwood         77
## 4 Antoine Defensive     6     0    180 Freshm Ft. L Fla.  Cardinal G     72
## 5 Assalle Placekick     6     0    195 Redshi Naper Ill.  Central         72
## 6 Azunna, Defensive     6     0    199 Redshi Grand Texas Lake Ridge      72

bioClean %>% count(State)

## # A tibble: 21 x 2
##    State         n
##  * <chr>     <int>
##  1 Ariz.         4
##  2 Ark.          1
##  3 Australia     1
##  4 Calif.        2
##  5 Fla.         14
##  6 Ga.           3
##  7 Ill.          6
##  8 Iowa         42
##  9 Kan.          4
## 10 Mich          1
## #  with 11 more rows
…
