Lab #4 Team
…
5.

Based on the output, we can can read a few of the rows. For example, there are 42 players from Iowa, 4 players from Arizona, and even 1 player from Australia.

biography %>% count(State)

## # A tibble: 21 x 2
##    State         n
##  * <chr>     <int>
##  1 Ariz.         4
##  2 Ark.          1
##  3 Australia     1
##  4 Calif.        2
##  5 Fla.         14
##  6 Ga.           3
##  7 Ill.          6
##  8 Iowa         42
##  9 Kan.          4
## 10 Mich          1
## #  with 11 more rows
…
# using inner join to get only defensive player names and states
DPlayers <- inner_join(biography, defClean, by = 'Name')
DPlayers <- DPlayers %>% select(Name, State)
DPlayers <- DPlayers %>% group_by(Name) %>% distinct()
DPlayers

## # A tibble: 36 x 2
## # Groups:   Name [36]
##    Name             State
##    <fct>            <chr>
##  1 Akers, Landen    Iowa 
##  2 Azunna, Arnold   Texas
##  3 Bailey, JaQuan   Fla. 
##  4 Bailey, Joshua   Fla. 
##  5 Brock, Jirehl    Ill. 
##  6 Chambers, Mason  Texas
##  7 Davis, Dae'Shawn Ohio 
##  8 Hathcock, Koby   Ariz.
##  9 Horne, Aric      Fla. 
## 10 Hummel, Jake     Iowa 
## #  with 26 more rows
…
